<svg width="22" height="22" viewBox="0 0 22 22" fill="none" xmlns="http://www.w3.org/2000/svg">
<path fill-rule="evenodd" clip-rule="evenodd" d="M11 20C15.9706 20 20 15.9706 20 11C20 6.02944 15.9706 2 11 2C6.02944 2 2 6.02944 2 11C2 15.9706 6.02944 20 11 20ZM11 22C17.0751 22 22 17.0751 22 11C22 4.92487 17.0751 0 11 0C4.92487 0 0 4.92487 0 11C0 17.0751 4.92487 22 11 22Z" fill="white"/>
<mask id="mask0_2421_27882" style="mask-type:alpha" maskUnits="userSpaceOnUse" x="0" y="0" width="22" height="22">
<path d="M22 11C22 17.0751 17.0751 22 11 22C4.92487 22 0 17.0751 0 11C0 4.92487 4.92487 0 11 0C17.0751 0 22 4.92487 22 11Z" fill="#333333"/>
</mask>
<g mask="url(#mask0_2421_27882)">
<path fill-rule="evenodd" clip-rule="evenodd" d="M11 33.75C15.9706 33.75 20 29.7206 20 24.75C20 19.7794 15.9706 15.75 11 15.75C6.02944 15.75 2 19.7794 2 24.75C2 29.7206 6.02944 33.75 11 33.75ZM11 35.75C17.0751 35.75 22 30.8251 22 24.75C22 18.6749 17.0751 13.75 11 13.75C4.92487 13.75 0 18.6749 0 24.75C0 30.8251 4.92487 35.75 11 35.75Z" fill="white"/>
</g>
<path fill-rule="evenodd" clip-rule="evenodd" d="M10.9993 10.8337C12.4261 10.8337 13.5827 9.67706 13.5827 8.25033C13.5827 6.82359 12.4261 5.66699 10.9993 5.66699C9.57261 5.66699 8.41602 6.82359 8.41602 8.25033C8.41602 9.67706 9.57261 10.8337 10.9993 10.8337ZM10.9993 12.8337C13.5307 12.8337 15.5827 10.7816 15.5827 8.25033C15.5827 5.71902 13.5307 3.66699 10.9993 3.66699C8.46804 3.66699 6.41602 5.71902 6.41602 8.25033C6.41602 10.7816 8.46804 12.8337 10.9993 12.8337Z" fill="white"/>
</svg>
