<svg width="20" height="20" viewBox="0 0 20 20" fill="none" xmlns="http://www.w3.org/2000/svg">
<path fill-rule="evenodd" clip-rule="evenodd" d="M9.00098 13.5024C11.4863 13.5024 13.501 11.4872 13.501 9.00138C13.501 6.51553 11.4863 4.50035 9.00098 4.50035C6.5157 4.50035 4.50098 6.51553 4.50098 9.00138C4.50098 11.4872 6.5157 13.5024 9.00098 13.5024ZM9.00098 15.0028C12.3147 15.0028 15.001 12.3159 15.001 9.00138C15.001 5.68691 12.3147 3 9.00098 3C5.68727 3 3.00098 5.68691 3.00098 9.00138C3.00098 12.3159 5.68727 15.0028 9.00098 15.0028Z" fill="#A9A6AE"/>
<path d="M12.3417 12.3428C12.6346 12.0498 13.1095 12.0498 13.4024 12.3428L16.7781 15.7192C17.071 16.0122 17.071 16.4872 16.7781 16.7801C16.4852 17.0731 16.0103 17.0731 15.7174 16.7801L12.3417 13.4037C12.0488 13.1107 12.0488 12.6357 12.3417 12.3428Z" fill="#A9A6AE"/>
</svg>
